MODULE HelloWorld;

IMPORT Terminal;
VAR ch : CHAR;
BEGIN
    Terminal.WriteString("hello, world");
    Terminal.WriteLn;
    Terminal.WriteString("Abc");
    ch := Terminal.ReadChar();
END HelloWorld.
